%YAML 1.1
%TAG !u! tag:unity3d.com,2011:
--- !u!29 &1
OcclusionCullingSettings:
  m_ObjectHideFlags: 0
  serializedVersion: 2
  m_OcclusionBakeSettings:
    smallestOccluder: 5
    smallestHole: 0.25
    backfaceThreshold: 100
  m_SceneGUID: 00000000000000000000000000000000
  m_OcclusionCullingData: {fileID: 0}
--- !u!104 &2
RenderSettings:
  m_ObjectHideFlags: 0
  serializedVersion: 8
  m_Fog: 0
  m_FogColor: {r: 0.5, g: 0.5, b: 0.5, a: 1}
  m_FogMode: 3
  m_FogDensity: 0.01
  m_LinearFogStart: 0
  m_LinearFogEnd: 300
  m_AmbientSkyColor: {r: 0.212, g: 0.227, b: 0.259, a: 1}
  m_AmbientEquatorColor: {r: 0.114, g: 0.125, b: 0.133, a: 1}
  m_AmbientGroundColor: {r: 0.047, g: 0.043, b: 0.035, a: 1}
  m_AmbientIntensity: 1
  m_AmbientMode: 0
  m_SubtractiveShadowColor: {r: 0.42, g: 0.478, b: 0.627, a: 1}
  m_SkyboxMaterial: {fileID: 2100000, guid: 119ec07f1c7ed204db46bd8465fd5a50, type: 2}
  m_HaloStrength: 0.5
  m_FlareStrength: 1
  m_FlareFadeSpeed: 3
  m_HaloTexture: {fileID: 0}
  m_SpotCookie: {fileID: 10001, guid: 0000000000000000e000000000000000, type: 0}
  m_DefaultReflectionMode: 0
  m_DefaultReflectionResolution: 256
  m_ReflectionBounces: 2
  m_ReflectionIntensity: 1
  m_CustomReflection: {fileID: 0}
  m_Sun: {fileID: 0}
  m_IndirectSpecularColor: {r: 0, g: 0, b: 0, a: 1}
--- !u!157 &3
LightmapSettings:
  m_ObjectHideFlags: 0
  serializedVersion: 11
  m_GIWorkflowMode: 0
  m_GISettings:
    serializedVersion: 2
    m_BounceScale: 1
    m_IndirectOutputScale: 1
    m_AlbedoBoost: 1
    m_TemporalCoherenceThreshold: 1
    m_EnvironmentLightingMode: 0
    m_EnableBakedLightmaps: 1
    m_EnableRealtimeLightmaps: 1
  m_LightmapEditorSettings:
    serializedVersion: 9
    m_Resolution: 2
    m_BakeResolution: 40
    m_TextureWidth: 512
    m_TextureHeight: 1024
    m_AO: 1
    m_AOMaxDistance: 1
    m_CompAOExponent: 1
    m_CompAOExponentDirect: 0
    m_Padding: 2
    m_LightmapParameters: {fileID: 0}
    m_LightmapsBakeMode: 1
    m_TextureCompression: 1
    m_FinalGather: 0
    m_FinalGatherFiltering: 1
    m_FinalGatherRayCount: 256
    m_ReflectionCompression: 2
    m_MixedBakeMode: 1
    m_BakeBackend: 0
    m_PVRSampling: 1
    m_PVRDirectSampleCount: 32
    m_PVRSampleCount: 500
    m_PVRBounces: 2
    m_PVRFilterTypeDirect: 0
    m_PVRFilterTypeIndirect: 0
    m_PVRFilterTypeAO: 0
    m_PVRFilteringMode: 0
    m_PVRCulling: 1
    m_PVRFilteringGaussRadiusDirect: 1
    m_PVRFilteringGaussRadiusIndirect: 5
    m_PVRFilteringGaussRadiusAO: 2
    m_PVRFilteringAtrousPositionSigmaDirect: 0.5
    m_PVRFilteringAtrousPositionSigmaIndirect: 2
    m_PVRFilteringAtrousPositionSigmaAO: 1
    m_ShowResolutionOverlay: 1
  m_LightingDataAsset: {fileID: 0}
  m_UseShadowmask: 0
--- !u!196 &4
NavMeshSettings:
  serializedVersion: 2
  m_ObjectHideFlags: 0
  m_BuildSettings:
    serializedVersion: 2
    agentTypeID: 0
    agentRadius: 0.5
    agentHeight: 2
    agentSlope: 45
    agentClimb: 0.4
    ledgeDropHeight: 0
    maxJumpAcrossDistance: 0
    minRegionArea: 2
    manualCellSize: 0
    cellSize: 0.16666667
    manualTileSize: 0
    tileSize: 256
    accuratePlacement: 0
    debug:
      m_Flags: 0
  m_NavMeshData: {fileID: 0}
--- !u!1 &109417064
GameObject:
  m_ObjectHideFlags: 0
  m_PrefabParentObject: {fileID: 1810280545766114, guid: 88c20de6c1dc0f04abeaffaac0a9a6cf,
    type: 2}
  m_PrefabInternal: {fileID: 1980884457}
  serializedVersion: 5
  m_Component:
  - component: {fileID: 109417065}
  - component: {fileID: 109417068}
  - component: {fileID: 109417067}
  - component: {fileID: 109417066}
  m_Layer: 12
  m_Name: Cube
  m_TagString: Untagged
  m_Icon: {fileID: 0}
  m_NavMeshLayer: 0
  m_StaticEditorFlags: 4294967295
  m_IsActive: 1
--- !u!4 &109417065
Transform:
  m_ObjectHideFlags: 0
  m_PrefabParentObject: {fileID: 4628340601042456, guid: 88c20de6c1dc0f04abeaffaac0a9a6cf,
    type: 2}
  m_PrefabInternal: {fileID: 1980884457}
  m_GameObject: {fileID: 109417064}
  m_LocalRotation: {x: -0, y: -0, z: -0, w: 1}
  m_LocalPosition: {x: 0, y: -0.70000005, z: 0}
  m_LocalScale: {x: 1, y: 1, z: 1}
  m_Children: []
  m_Father: {fileID: 1847182641}
  m_RootOrder: 0
  m_LocalEulerAnglesHint: {x: 0, y: 0, z: 0}
--- !u!23 &109417066
MeshRenderer:
  m_ObjectHideFlags: 0
  m_PrefabParentObject: {fileID: 23006185736301576, guid: 88c20de6c1dc0f04abeaffaac0a9a6cf,
    type: 2}
  m_PrefabInternal: {fileID: 1980884457}
  m_GameObject: {fileID: 109417064}
  m_Enabled: 1
  m_CastShadows: 1
  m_ReceiveShadows: 1
  m_DynamicOccludee: 1
  m_MotionVectors: 1
  m_LightProbeUsage: 1
  m_ReflectionProbeUsage: 2
  m_Materials:
  - {fileID: 2100000, guid: db3bceb128d32144ca6fd4550ac256bc, type: 2}
  m_StaticBatchInfo:
    firstSubMesh: 0
    subMeshCount: 0
  m_StaticBatchRoot: {fileID: 0}
  m_ProbeAnchor: {fileID: 0}
  m_LightProbeVolumeOverride: {fileID: 0}
  m_ScaleInLightmap: 1
  m_PreserveUVs: 1
  m_IgnoreNormalsForChartDetection: 0
  m_ImportantGI: 0
  m_StitchLightmapSeams: 0
  m_SelectedEditorRenderState: 3
  m_MinimumChartSize: 4
  m_AutoUVMaxDistance: 0.5
  m_AutoUVMaxAngle: 89
  m_LightmapParameters: {fileID: 0}
  m_SortingLayerID: 0
  m_SortingLayer: 0
  m_SortingOrder: 0
--- !u!65 &109417067
BoxCollider:
  m_ObjectHideFlags: 0
  m_PrefabParentObject: {fileID: 65562705914139494, guid: 88c20de6c1dc0f04abeaffaac0a9a6cf,
    type: 2}
  m_PrefabInternal: {fileID: 1980884457}
  m_GameObject: {fileID: 109417064}
  m_Material: {fileID: 0}
  m_IsTrigger: 0
  m_Enabled: 1
  serializedVersion: 2
  m_Size: {x: 1, y: 1, z: 1}
  m_Center: {x: 0, y: 0, z: 0}
--- !u!33 &109417068
MeshFilter:
  m_ObjectHideFlags: 0
  m_PrefabParentObject: {fileID: 33193202093693560, guid: 88c20de6c1dc0f04abeaffaac0a9a6cf,
    type: 2}
  m_PrefabInternal: {fileID: 1980884457}
  m_GameObject: {fileID: 109417064}
  m_Mesh: {fileID: 10202, guid: 0000000000000000e000000000000000, type: 0}
--- !u!1 &162246540
GameObject:
  m_ObjectHideFlags: 0
  m_PrefabParentObject: {fileID: 1781536671759404, guid: 88c20de6c1dc0f04abeaffaac0a9a6cf,
    type: 2}
  m_PrefabInternal: {fileID: 1980884457}
  serializedVersion: 5
  m_Component:
  - component: {fileID: 162246541}
  - component: {fileID: 162246544}
  - component: {fileID: 162246543}
  - component: {fileID: 162246542}
  m_Layer: 9
  m_Name: Sphere 8/10
  m_TagString: Untagged
  m_Icon: {fileID: 0}
  m_NavMeshLayer: 0
  m_StaticEditorFlags: 4294967295
  m_IsActive: 1
--- !u!4 &162246541
Transform:
  m_ObjectHideFlags: 0
  m_PrefabParentObject: {fileID: 4352419248395864, guid: 88c20de6c1dc0f04abeaffaac0a9a6cf,
    type: 2}
  m_PrefabInternal: {fileID: 1980884457}
  m_GameObject: {fileID: 162246540}
  m_LocalRotation: {x: -0, y: -0, z: -0, w: 1}
  m_LocalPosition: {x: -3, y: 1.2, z: 0}
  m_LocalScale: {x: 1, y: 1, z: 1}
  m_Children:
  - {fileID: 1986136315}
  - {fileID: 1849257781}
  m_Father: {fileID: 1769480472}
  m_RootOrder: 1
  m_LocalEulerAnglesHint: {x: 0, y: 0, z: 0}
--- !u!23 &162246542
MeshRenderer:
  m_ObjectHideFlags: 0
  m_PrefabParentObject: {fileID: 23824224364445998, guid: 88c20de6c1dc0f04abeaffaac0a9a6cf,
    type: 2}
  m_PrefabInternal: {fileID: 1980884457}
  m_GameObject: {fileID: 162246540}
  m_Enabled: 1
  m_CastShadows: 1
  m_ReceiveShadows: 1
  m_DynamicOccludee: 1
  m_MotionVectors: 1
  m_LightProbeUsage: 1
  m_ReflectionProbeUsage: 2
  m_Materials:
  - {fileID: 2100000, guid: abcc3c67b7d0a794f8bb91be4e85abdd, type: 2}
  m_StaticBatchInfo:
    firstSubMesh: 0
    subMeshCount: 0
  m_StaticBatchRoot: {fileID: 0}
  m_ProbeAnchor: {fileID: 0}
  m_LightProbeVolumeOverride: {fileID: 0}
  m_ScaleInLightmap: 1
  m_PreserveUVs: 1
  m_IgnoreNormalsForChartDetection: 0
  m_ImportantGI: 0
  m_StitchLightmapSeams: 0
  m_SelectedEditorRenderState: 3
  m_MinimumChartSize: 4
  m_AutoUVMaxDistance: 0.5
  m_AutoUVMaxAngle: 89
  m_LightmapParameters: {fileID: 0}
  m_SortingLayerID: 0
  m_SortingLayer: 0
  m_SortingOrder: 0
--- !u!135 &162246543
SphereCollider:
  m_ObjectHideFlags: 0
  m_PrefabParentObject: {fileID: 135739201101128418, guid: 88c20de6c1dc0f04abeaffaac0a9a6cf,
    type: 2}
  m_PrefabInternal: {fileID: 1980884457}
  m_GameObject: {fileID: 162246540}
  m_Material: {fileID: 0}
  m_IsTrigger: 0
  m_Enabled: 1
  serializedVersion: 2
  m_Radius: 0.5
  m_Center: {x: 0, y: 0, z: 0}
--- !u!33 &162246544
MeshFilter:
  m_ObjectHideFlags: 0
  m_PrefabParentObject: {fileID: 33338442592528420, guid: 88c20de6c1dc0f04abeaffaac0a9a6cf,
    type: 2}
  m_PrefabInternal: {fileID: 1980884457}
  m_GameObject: {fileID: 162246540}
  m_Mesh: {fileID: 10207, guid: 0000000000000000e000000000000000, type: 0}
--- !u!1 &409526496
GameObject:
  m_ObjectHideFlags: 0
  m_PrefabParentObject: {fileID: 0}
  m_PrefabInternal: {fileID: 0}
  serializedVersion: 5
  m_Component:
  - component: {fileID: 409526498}
  - component: {fileID: 409526497}
  m_Layer: 0
  m_Name: Directional light
  m_TagString: Untagged
  m_Icon: {fileID: 0}
  m_NavMeshLayer: 0
  m_StaticEditorFlags: 0
  m_IsActive: 1
--- !u!108 &409526497
Light:
  m_ObjectHideFlags: 0
  m_PrefabParentObject: {fileID: 0}
  m_PrefabInternal: {fileID: 0}
  m_GameObject: {fileID: 409526496}
  m_Enabled: 1
  serializedVersion: 8
  m_Type: 1
  m_Color: {r: 1, g: 0.7902637, b: 0.6764706, a: 1}
  m_Intensity: 0.75
  m_Range: 10
  m_SpotAngle: 30
  m_CookieSize: 10
  m_Shadows:
    m_Type: 2
    m_Resolution: -1
    m_CustomResolution: -1
    m_Strength: 1
    m_Bias: 0.05
    m_NormalBias: 0.4
    m_NearPlane: 0.2
  m_Cookie: {fileID: 0}
  m_DrawHalo: 0
  m_Flare: {fileID: 0}
  m_RenderMode: 0
  m_CullingMask:
    serializedVersion: 2
    m_Bits: 4294967295
  m_Lightmapping: 4
  m_AreaSize: {x: 1, y: 1}
  m_BounceIntensity: 1
  m_ColorTemperature: 6570
  m_UseColorTemperature: 0
  m_ShadowRadius: 0
  m_ShadowAngle: 0
--- !u!4 &409526498
Transform:
  m_ObjectHideFlags: 0
  m_PrefabParentObject: {fileID: 0}
  m_PrefabInternal: {fileID: 0}
  m_GameObject: {fileID: 409526496}
  m_LocalRotation: {x: -0.05217611, y: -0.97382534, z: 0.22008161, w: -0.02249752}
  m_LocalPosition: {x: -0.191, y: 3.066, z: -0.12}
  m_LocalScale: {x: 1, y: 1, z: 1}
  m_Children: []
  m_Father: {fileID: 0}
  m_RootOrder: 2
  m_LocalEulerAnglesHint: {x: 25.53, y: -181.32399, z: 5.834}
--- !u!1 &579577781
GameObject:
  m_ObjectHideFlags: 0
  m_PrefabParentObject: {fileID: 1207948963076162, guid: 88c20de6c1dc0f04abeaffaac0a9a6cf,
    type: 2}
  m_PrefabInternal: {fileID: 1980884457}
  serializedVersion: 5
  m_Component:
  - component: {fileID: 579577782}
  - component: {fileID: 579577783}
  m_Layer: 0
  m_Name: Reflection Probe
  m_TagString: Untagged
  m_Icon: {fileID: 0}
  m_NavMeshLayer: 0
  m_StaticEditorFlags: 0
  m_IsActive: 1
--- !u!4 &579577782
Transform:
  m_ObjectHideFlags: 0
  m_PrefabParentObject: {fileID: 4432484994539112, guid: 88c20de6c1dc0f04abeaffaac0a9a6cf,
    type: 2}
  m_PrefabInternal: {fileID: 1980884457}
  m_GameObject: {fileID: 579577781}
  m_LocalRotation: {x: -0, y: -0, z: -0, w: 1}
  m_LocalPosition: {x: 0, y: 0.06317496, z: 0.0071258545}
  m_LocalScale: {x: 1, y: 1, z: 1}
  m_Children: []
  m_Father: {fileID: 1438065938}
  m_RootOrder: 0
  m_LocalEulerAnglesHint: {x: 0, y: 0, z: 0}
--- !u!215 &579577783
ReflectionProbe:
  m_ObjectHideFlags: 0
  m_PrefabParentObject: {fileID: 215996755178748940, guid: 88c20de6c1dc0f04abeaffaac0a9a6cf,
    type: 2}
  m_PrefabInternal: {fileID: 1980884457}
  m_GameObject: {fileID: 579577781}
  m_Enabled: 1
  serializedVersion: 2
  m_Type: 0
  m_Mode: 1
  m_RefreshMode: 0
  m_TimeSlicingMode: 0
  m_Resolution: 512
  m_UpdateFrequency: 0
  m_BoxSize: {x: 2.1821249, y: 2.8331733, z: 1.9228041}
  m_BoxOffset: {x: -0.06899154, y: 0.07383835, z: -0.20782173}
  m_NearClip: 0.3
  m_FarClip: 1000
  m_ShadowDistance: 100
  m_ClearFlags: 1
  m_BackGroundColor: {r: 0.19215687, g: 0.3019608, b: 0.4745098, a: 0}
  m_CullingMask:
    serializedVersion: 2
    m_Bits: 4294966271
  m_IntensityMultiplier: 1
  m_BlendDistance: 1
  m_HDR: 1
  m_BoxProjection: 0
  m_RenderDynamicObjects: 1
  m_UseOcclusionCulling: 1
  m_Importance: 1
  m_CustomBakedTexture: {fileID: 0}
--- !u!1 &654240352
GameObject:
  m_ObjectHideFlags: 0
  m_PrefabParentObject: {fileID: 1139115104988334, guid: 88c20de6c1dc0f04abeaffaac0a9a6cf,
    type: 2}
  m_PrefabInternal: {fileID: 1980884457}
  serializedVersion: 5
  m_Component:
  - component: {fileID: 654240353}
  - component: {fileID: 654240356}
  - component: {fileID: 654240355}
  - component: {fileID: 654240354}
  m_Layer: 8
  m_Name: Sphere
  m_TagString: Untagged
  m_Icon: {fileID: 0}
  m_NavMeshLayer: 0
  m_StaticEditorFlags: 4294967295
  m_IsActive: 1
--- !u!4 &654240353
Transform:
  m_ObjectHideFlags: 0
  m_PrefabParentObject: {fileID: 4138420152205064, guid: 88c20de6c1dc0f04abeaffaac0a9a6cf,
    type: 2}
  m_PrefabInternal: {fileID: 1980884457}
  m_GameObject: {fileID: 654240352}
  m_LocalRotation: {x: -0, y: -0, z: -0, w: 1}
  m_LocalPosition: {x: 0, y: 1.2, z: 0}
  m_LocalScale: {x: 1, y: 1, z: 1}
  m_Children:
  - {fileID: 1077743430}
  - {fileID: 1708690438}
  m_Father: {fileID: 1769480472}
  m_RootOrder: 0
  m_LocalEulerAnglesHint: {x: 0, y: 0, z: 0}
--- !u!23 &654240354
MeshRenderer:
  m_ObjectHideFlags: 0
  m_PrefabParentObject: {fileID: 23511426113429424, guid: 88c20de6c1dc0f04abeaffaac0a9a6cf,
    type: 2}
  m_PrefabInternal: {fileID: 1980884457}
  m_GameObject: {fileID: 654240352}
  m_Enabled: 1
  m_CastShadows: 1
  m_ReceiveShadows: 1
  m_DynamicOccludee: 1
  m_MotionVectors: 1
  m_LightProbeUsage: 1
  m_ReflectionProbeUsage: 1
  m_Materials:
  - {fileID: 2100000, guid: 1b27a20a436b4c64b882a6f739bf91de, type: 2}
  m_StaticBatchInfo:
    firstSubMesh: 0
    subMeshCount: 0
  m_StaticBatchRoot: {fileID: 0}
  m_ProbeAnchor: {fileID: 0}
  m_LightProbeVolumeOverride: {fileID: 0}
  m_ScaleInLightmap: 1
  m_PreserveUVs: 1
  m_IgnoreNormalsForChartDetection: 0
  m_ImportantGI: 0
  m_StitchLightmapSeams: 0
  m_SelectedEditorRenderState: 3
  m_MinimumChartSize: 4
  m_AutoUVMaxDistance: 0.5
  m_AutoUVMaxAngle: 89
  m_LightmapParameters: {fileID: 0}
  m_SortingLayerID: 0
  m_SortingLayer: 0
  m_SortingOrder: 0
--- !u!135 &654240355
SphereCollider:
  m_ObjectHideFlags: 0
  m_PrefabParentObject: {fileID: 135546264044914442, guid: 88c20de6c1dc0f04abeaffaac0a9a6cf,
    type: 2}
  m_PrefabInternal: {fileID: 1980884457}
  m_GameObject: {fileID: 654240352}
  m_Material: {fileID: 0}
  m_IsTrigger: 0
  m_Enabled: 1
  serializedVersion: 2
  m_Radius: 0.5
  m_Center: {x: 0, y: 0, z: 0}
--- !u!33 &654240356
MeshFilter:
  m_ObjectHideFlags: 0
  m_PrefabParentObject: {fileID: 33105653230305072, guid: 88c20de6c1dc0f04abeaffaac0a9a6cf,
    type: 2}
  m_PrefabInternal: {fileID: 1980884457}
  m_GameObject: {fileID: 654240352}
  m_Mesh: {fileID: 10207, guid: 0000000000000000e000000000000000, type: 0}
--- !u!1 &741457515
GameObject:
  m_ObjectHideFlags: 0
  m_PrefabParentObject: {fileID: 1480376389656750, guid: 88c20de6c1dc0f04abeaffaac0a9a6cf,
    type: 2}
  m_PrefabInternal: {fileID: 1980884457}
  serializedVersion: 5
  m_Component:
  - component: {fileID: 741457516}
  - component: {fileID: 741457519}
  - component: {fileID: 741457518}
  - component: {fileID: 741457517}
  m_Layer: 0
  m_Name: Plane
  m_TagString: Untagged
  m_Icon: {fileID: 0}
  m_NavMeshLayer: 0
  m_StaticEditorFlags: 4294967295
  m_IsActive: 1
--- !u!4 &741457516
Transform:
  m_ObjectHideFlags: 0
  m_PrefabParentObject: {fileID: 4966989887771852, guid: 88c20de6c1dc0f04abeaffaac0a9a6cf,
    type: 2}
  m_PrefabInternal: {fileID: 1980884457}
  m_GameObject: {fileID: 741457515}
  m_LocalRotation: {x: -0, y: -0, z: -0, w: 1}
  m_LocalPosition: {x: 0, y: 0, z: 0}
  m_LocalScale: {x: 1, y: 1, z: 1}
  m_Children: []
  m_Father: {fileID: 1769480472}
  m_RootOrder: 5
  m_LocalEulerAnglesHint: {x: 0, y: 0, z: 0}
--- !u!23 &741457517
MeshRenderer:
  m_ObjectHideFlags: 0
  m_PrefabParentObject: {fileID: 23470101336099490, guid: 88c20de6c1dc0f04abeaffaac0a9a6cf,
    type: 2}
  m_PrefabInternal: {fileID: 1980884457}
  m_GameObject: {fileID: 741457515}
  m_Enabled: 1
  m_CastShadows: 1
  m_ReceiveShadows: 1
  m_DynamicOccludee: 1
  m_MotionVectors: 1
  m_LightProbeUsage: 1
  m_ReflectionProbeUsage: 3
  m_Materials:
  - {fileID: 2100000, guid: db3bceb128d32144ca6fd4550ac256bc, type: 2}
  m_StaticBatchInfo:
    firstSubMesh: 0
    subMeshCount: 0
  m_StaticBatchRoot: {fileID: 0}
  m_ProbeAnchor: {fileID: 0}
  m_LightProbeVolumeOverride: {fileID: 0}
  m_ScaleInLightmap: 1
  m_PreserveUVs: 1
  m_IgnoreNormalsForChartDetection: 0
  m_ImportantGI: 0
  m_StitchLightmapSeams: 0
  m_SelectedEditorRenderState: 3
  m_MinimumChartSize: 4
  m_AutoUVMaxDistance: 0.5
  m_AutoUVMaxAngle: 89
  m_LightmapParameters: {fileID: 0}
  m_SortingLayerID: 0
  m_SortingLayer: 0
  m_SortingOrder: 0
--- !u!64 &741457518
MeshCollider:
  m_ObjectHideFlags: 0
  m_PrefabParentObject: {fileID: 64592609569433778, guid: 88c20de6c1dc0f04abeaffaac0a9a6cf,
    type: 2}
  m_PrefabInternal: {fileID: 1980884457}
  m_GameObject: {fileID: 741457515}
  m_Material: {fileID: 0}
  m_IsTrigger: 0
  m_Enabled: 1
  serializedVersion: 3
  m_Convex: 0
  m_CookingOptions: 14
  m_SkinWidth: 0.01
  m_Mesh: {fileID: 10209, guid: 0000000000000000e000000000000000, type: 0}
--- !u!33 &741457519
MeshFilter:
  m_ObjectHideFlags: 0
  m_PrefabParentObject: {fileID: 33306647192945968, guid: 88c20de6c1dc0f04abeaffaac0a9a6cf,
    type: 2}
  m_PrefabInternal: {fileID: 1980884457}
  m_GameObject: {fileID: 741457515}
  m_Mesh: {fileID: 10209, guid: 0000000000000000e000000000000000, type: 0}
--- !u!1 &843331567
GameObject:
  m_ObjectHideFlags: 0
  m_PrefabParentObject: {fileID: 0}
  m_PrefabInternal: {fileID: 0}
  serializedVersion: 5
  m_Component:
  - component: {fileID: 843331572}
  - component: {fileID: 843331571}
  - component: {fileID: 843331570}
  - component: {fileID: 843331569}
  - component: {fileID: 843331568}
  m_Layer: 0
  m_Name: Main Camera
  m_TagString: MainCamera
  m_Icon: {fileID: 0}
  m_NavMeshLayer: 0
  m_StaticEditorFlags: 0
  m_IsActive: 1
--- !u!81 &843331568
AudioListener:
  m_ObjectHideFlags: 0
  m_PrefabParentObject: {fileID: 0}
  m_PrefabInternal: {fileID: 0}
  m_GameObject: {fileID: 843331567}
  m_Enabled: 1
--- !u!124 &843331569
Behaviour:
  m_ObjectHideFlags: 0
  m_PrefabParentObject: {fileID: 0}
  m_PrefabInternal: {fileID: 0}
  m_GameObject: {fileID: 843331567}
  m_Enabled: 1
--- !u!92 &843331570
Behaviour:
  m_ObjectHideFlags: 0
  m_PrefabParentObject: {fileID: 0}
  m_PrefabInternal: {fileID: 0}
  m_GameObject: {fileID: 843331567}
  m_Enabled: 1
--- !u!20 &843331571
Camera:
  m_ObjectHideFlags: 0
  m_PrefabParentObject: {fileID: 0}
  m_PrefabInternal: {fileID: 0}
  m_GameObject: {fileID: 843331567}
  m_Enabled: 1
  serializedVersion: 2
  m_ClearFlags: 1
  m_BackGroundColor: {r: 0.19215687, g: 0.3019608, b: 0.4745098, a: 0}
  m_NormalizedViewPortRect:
    serializedVersion: 2
    x: 0
    y: 0
    width: 1
    height: 1
  near clip plane: 0.3
  far clip plane: 1000
  field of view: 60
  orthographic: 0
  orthographic size: 5
  m_Depth: -1
  m_CullingMask:
    serializedVersion: 2
    m_Bits: 4294967295
  m_RenderingPath: -1
  m_TargetTexture: {fileID: 0}
  m_TargetDisplay: 0
  m_TargetEye: 3
  m_HDR: 1
  m_AllowMSAA: 1
  m_AllowDynamicResolution: 0
  m_ForceIntoRT: 0
  m_OcclusionCulling: 1
  m_StereoConvergence: 10
  m_StereoSeparation: 0.022
--- !u!4 &843331572
Transform:
  m_ObjectHideFlags: 0
  m_PrefabParentObject: {fileID: 0}
  m_PrefabInternal: {fileID: 0}
  m_GameObject: {fileID: 843331567}
  m_LocalRotation: {x: 0.030260773, y: 0.9049638, z: -0.08582491, w: 0.41564277}
  m_LocalPosition: {x: -5.723, y: 2.336, z: 4.773}
  m_LocalScale: {x: 1, y: 1, z: 1}
  m_Children: []
  m_Father: {fileID: 0}
  m_RootOrder: 0
  m_LocalEulerAnglesHint: {x: 10.398001, y: 130.574, z: -0.966}
--- !u!1 &1077743429
GameObject:
  m_ObjectHideFlags: 0
  m_PrefabParentObject: {fileID: 1425739068514518, guid: 88c20de6c1dc0f04abeaffaac0a9a6cf,
    type: 2}
  m_PrefabInternal: {fileID: 1980884457}
  serializedVersion: 5
  m_Component:
  - component: {fileID: 1077743430}
  - component: {fileID: 1077743431}
  m_Layer: 0
  m_Name: Reflection Probe
  m_TagString: Untagged
  m_Icon: {fileID: 0}
  m_NavMeshLayer: 0
  m_StaticEditorFlags: 0
  m_IsActive: 1
--- !u!4 &1077743430
Transform:
  m_ObjectHideFlags: 0
  m_PrefabParentObject: {fileID: 4123922415482610, guid: 88c20de6c1dc0f04abeaffaac0a9a6cf,
    type: 2}
  m_PrefabInternal: {fileID: 1980884457}
  m_GameObject: {fileID: 1077743429}
  m_LocalRotation: {x: -0, y: -0, z: -0, w: 1}
  m_LocalPosition: {x: 0, y: 0.06317496, z: 0}
  m_LocalScale: {x: 1, y: 1, z: 1}
  m_Children: []
  m_Father: {fileID: 654240353}
  m_RootOrder: 0
  m_LocalEulerAnglesHint: {x: 0, y: 0, z: 0}
--- !u!215 &1077743431
ReflectionProbe:
  m_ObjectHideFlags: 0
  m_PrefabParentObject: {fileID: 215273260888228516, guid: 88c20de6c1dc0f04abeaffaac0a9a6cf,
    type: 2}
  m_PrefabInternal: {fileID: 1980884457}
  m_GameObject: {fileID: 1077743429}
  m_Enabled: 1
  serializedVersion: 2
  m_Type: 0
  m_Mode: 1
  m_RefreshMode: 0
  m_TimeSlicingMode: 0
  m_Resolution: 512
  m_UpdateFrequency: 0
  m_BoxSize: {x: 2.1821249, y: 2.8331733, z: 2.4755678}
  m_BoxOffset: {x: -0.06899154, y: 0.07383835, z: -0.23206663}
  m_NearClip: 0.3
  m_FarClip: 1000
  m_ShadowDistance: 100
  m_ClearFlags: 1
  m_BackGroundColor: {r: 0.19215687, g: 0.3019608, b: 0.4745098, a: 0}
  m_CullingMask:
    serializedVersion: 2
    m_Bits: 4294967039
  m_IntensityMultiplier: 1
  m_BlendDistance: 1
  m_HDR: 1
  m_BoxProjection: 0
  m_RenderDynamicObjects: 1
  m_UseOcclusionCulling: 1
  m_Importance: 1
  m_CustomBakedTexture: {fileID: 0}
--- !u!1 &1178677629
GameObject:
  m_ObjectHideFlags: 0
  m_PrefabParentObject: {fileID: 1842634361512016, guid: 88c20de6c1dc0f04abeaffaac0a9a6cf,
    type: 2}
  m_PrefabInternal: {fileID: 1980884457}
  serializedVersion: 5
  m_Component:
  - component: {fileID: 1178677630}
  - component: {fileID: 1178677633}
  - component: {fileID: 1178677632}
  - component: {fileID: 1178677631}
  m_Layer: 11
  m_Name: Cube
  m_TagString: Untagged
  m_Icon: {fileID: 0}
  m_NavMeshLayer: 0
  m_StaticEditorFlags: 4294967295
  m_IsActive: 1
--- !u!4 &1178677630
Transform:
  m_ObjectHideFlags: 0
  m_PrefabParentObject: {fileID: 4938538743279590, guid: 88c20de6c1dc0f04abeaffaac0a9a6cf,
    type: 2}
  m_PrefabInternal: {fileID: 1980884457}
  m_GameObject: {fileID: 1178677629}
  m_LocalRotation: {x: -0, y: -0, z: -0, w: 1}
  m_LocalPosition: {x: 0, y: -0.70000005, z: 0}
  m_LocalScale: {x: 1, y: 1, z: 1}
  m_Children: []
  m_Father: {fileID: 1302250855}
  m_RootOrder: 1
  m_LocalEulerAnglesHint: {x: 0, y: 0, z: 0}
--- !u!23 &1178677631
MeshRenderer:
  m_ObjectHideFlags: 0
  m_PrefabParentObject: {fileID: 23931689888316860, guid: 88c20de6c1dc0f04abeaffaac0a9a6cf,
    type: 2}
  m_PrefabInternal: {fileID: 1980884457}
  m_GameObject: {fileID: 1178677629}
  m_Enabled: 1
  m_CastShadows: 1
  m_ReceiveShadows: 1
  m_DynamicOccludee: 1
  m_MotionVectors: 1
  m_LightProbeUsage: 1
  m_ReflectionProbeUsage: 1
  m_Materials:
  - {fileID: 2100000, guid: eb10b6f571322b443bec8c532c088270, type: 2}
  m_StaticBatchInfo:
    firstSubMesh: 0
    subMeshCount: 0
  m_StaticBatchRoot: {fileID: 0}
  m_ProbeAnchor: {fileID: 0}
  m_LightProbeVolumeOverride: {fileID: 0}
  m_ScaleInLightmap: 1
  m_PreserveUVs: 1
  m_IgnoreNormalsForChartDetection: 0
  m_ImportantGI: 0
  m_StitchLightmapSeams: 0
  m_SelectedEditorRenderState: 3
  m_MinimumChartSize: 4
  m_AutoUVMaxDistance: 0.5
  m_AutoUVMaxAngle: 89
  m_LightmapParameters: {fileID: 0}
  m_SortingLayerID: 0
  m_SortingLayer: 0
  m_SortingOrder: 0
--- !u!65 &1178677632
BoxCollider:
  m_ObjectHideFlags: 0
  m_PrefabParentObject: {fileID: 65918768619148394, guid: 88c20de6c1dc0f04abeaffaac0a9a6cf,
    type: 2}
  m_PrefabInternal: {fileID: 1980884457}
  m_GameObject: {fileID: 1178677629}
  m_Material: {fileID: 0}
  m_IsTrigger: 0
  m_Enabled: 1
  serializedVersion: 2
  m_Size: {x: 1, y: 1, z: 1}
  m_Center: {x: 0, y: 0, z: 0}
--- !u!33 &1178677633
MeshFilter:
  m_ObjectHideFlags: 0
  m_PrefabParentObject: {fileID: 33203118931350252, guid: 88c20de6c1dc0f04abeaffaac0a9a6cf,
    type: 2}
  m_PrefabInternal: {fileID: 1980884457}
  m_GameObject: {fileID: 1178677629}
  m_Mesh: {fileID: 10202, guid: 0000000000000000e000000000000000, type: 0}
--- !u!1 &1302250854
GameObject:
  m_ObjectHideFlags: 0
  m_PrefabParentObject: {fileID: 1819929351950984, guid: 88c20de6c1dc0f04abeaffaac0a9a6cf,
    type: 2}
  m_PrefabInternal: {fileID: 1980884457}
  serializedVersion: 5
  m_Component:
  - component: {fileID: 1302250855}
  - component: {fileID: 1302250858}
  - component: {fileID: 1302250857}
  - component: {fileID: 1302250856}
  m_Layer: 11
  m_Name: Sphere 4/10
  m_TagString: Untagged
  m_Icon: {fileID: 0}
  m_NavMeshLayer: 0
  m_StaticEditorFlags: 4294967295
  m_IsActive: 1
--- !u!4 &1302250855
Transform:
  m_ObjectHideFlags: 0
  m_PrefabParentObject: {fileID: 4021456742739614, guid: 88c20de6c1dc0f04abeaffaac0a9a6cf,
    type: 2}
  m_PrefabInternal: {fileID: 1980884457}
  m_GameObject: {fileID: 1302250854}
  m_LocalRotation: {x: -0, y: -0, z: -0, w: 1}
  m_LocalPosition: {x: 3, y: 1.2, z: 0}
  m_LocalScale: {x: 1, y: 1, z: 1}
  m_Children:
  - {fileID: 1730284857}
  - {fileID: 1178677630}
  m_Father: {fileID: 1769480472}
  m_RootOrder: 3
  m_LocalEulerAnglesHint: {x: 0, y: 0, z: 0}
--- !u!23 &1302250856
MeshRenderer:
  m_ObjectHideFlags: 0
  m_PrefabParentObject: {fileID: 23117798575693392, guid: 88c20de6c1dc0f04abeaffaac0a9a6cf,
    type: 2}
  m_PrefabInternal: {fileID: 1980884457}
  m_GameObject: {fileID: 1302250854}
  m_Enabled: 1
  m_CastShadows: 1
  m_ReceiveShadows: 1
  m_DynamicOccludee: 1
  m_MotionVectors: 1
  m_LightProbeUsage: 1
  m_ReflectionProbeUsage: 1
  m_Materials:
  - {fileID: 2100000, guid: eb10b6f571322b443bec8c532c088270, type: 2}
  m_StaticBatchInfo:
    firstSubMesh: 0
    subMeshCount: 0
  m_StaticBatchRoot: {fileID: 0}
  m_ProbeAnchor: {fileID: 0}
  m_LightProbeVolumeOverride: {fileID: 0}
  m_ScaleInLightmap: 1
  m_PreserveUVs: 1
  m_IgnoreNormalsForChartDetection: 0
  m_ImportantGI: 0
  m_StitchLightmapSeams: 0
  m_SelectedEditorRenderState: 3
  m_MinimumChartSize: 4
  m_AutoUVMaxDistance: 0.5
  m_AutoUVMaxAngle: 89
  m_LightmapParameters: {fileID: 0}
  m_SortingLayerID: 0
  m_SortingLayer: 0
  m_SortingOrder: 0
--- !u!135 &1302250857
SphereCollider:
  m_ObjectHideFlags: 0
  m_PrefabParentObject: {fileID: 135371467963733446, guid: 88c20de6c1dc0f04abeaffaac0a9a6cf,
    type: 2}
  m_PrefabInternal: {fileID: 1980884457}
  m_GameObject: {fileID: 1302250854}
  m_Material: {fileID: 0}
  m_IsTrigger: 0
  m_Enabled: 1
  serializedVersion: 2
  m_Radius: 0.5
  m_Center: {x: 0, y: 0, z: 0}
--- !u!33 &1302250858
MeshFilter:
  m_ObjectHideFlags: 0
  m_PrefabParentObject: {fileID: 33890392107062636, guid: 88c20de6c1dc0f04abeaffaac0a9a6cf,
    type: 2}
  m_PrefabInternal: {fileID: 1980884457}
  m_GameObject: {fileID: 1302250854}
  m_Mesh: {fileID: 10207, guid: 0000000000000000e000000000000000, type: 0}
--- !u!1 &1438065937
GameObject:
  m_ObjectHideFlags: 0
  m_PrefabParentObject: {fileID: 1329241636460970, guid: 88c20de6c1dc0f04abeaffaac0a9a6cf,
    type: 2}
  m_PrefabInternal: {fileID: 1980884457}
  serializedVersion: 5
  m_Component:
  - component: {fileID: 1438065938}
  - component: {fileID: 1438065941}
  - component: {fileID: 1438065940}
  - component: {fileID: 1438065939}
  m_Layer: 10
  m_Name: Sphere 6/10
  m_TagString: Untagged
  m_Icon: {fileID: 0}
  m_NavMeshLayer: 0
  m_StaticEditorFlags: 4294967295
  m_IsActive: 1
--- !u!4 &1438065938
Transform:
  m_ObjectHideFlags: 0
  m_PrefabParentObject: {fileID: 4177331993782376, guid: 88c20de6c1dc0f04abeaffaac0a9a6cf,
    type: 2}
  m_PrefabInternal: {fileID: 1980884457}
  m_GameObject: {fileID: 1438065937}
  m_LocalRotation: {x: -0, y: -0, z: -0, w: 1}
  m_LocalPosition: {x: 0, y: 1.2, z: 3}
  m_LocalScale: {x: 1, y: 1, z: 1}
  m_Children:
  - {fileID: 579577782}
  - {fileID: 1838066081}
  m_Father: {fileID: 1769480472}
  m_RootOrder: 2
  m_LocalEulerAnglesHint: {x: 0, y: 0, z: 0}
--- !u!23 &1438065939
MeshRenderer:
  m_ObjectHideFlags: 0
  m_PrefabParentObject: {fileID: 23020722786324260, guid: 88c20de6c1dc0f04abeaffaac0a9a6cf,
    type: 2}
  m_PrefabInternal: {fileID: 1980884457}
  m_GameObject: {fileID: 1438065937}
  m_Enabled: 1
  m_CastShadows: 1
  m_ReceiveShadows: 1
  m_DynamicOccludee: 1
  m_MotionVectors: 1
  m_LightProbeUsage: 1
  m_ReflectionProbeUsage: 1
  m_Materials:
  - {fileID: 2100000, guid: 964f6a34e2240bf45940918b112ce7be, type: 2}
  m_StaticBatchInfo:
    firstSubMesh: 0
    subMeshCount: 0
  m_StaticBatchRoot: {fileID: 0}
  m_ProbeAnchor: {fileID: 0}
  m_LightProbeVolumeOverride: {fileID: 0}
  m_ScaleInLightmap: 1
  m_PreserveUVs: 1
  m_IgnoreNormalsForChartDetection: 0
  m_ImportantGI: 0
  m_StitchLightmapSeams: 0
  m_SelectedEditorRenderState: 3
  m_MinimumChartSize: 4
  m_AutoUVMaxDistance: 0.5
  m_AutoUVMaxAngle: 89
  m_LightmapParameters: {fileID: 0}
  m_SortingLayerID: 0
  m_SortingLayer: 0
  m_SortingOrder: 0
--- !u!135 &1438065940
SphereCollider:
  m_ObjectHideFlags: 0
  m_PrefabParentObject: {fileID: 135817325491017912, guid: 88c20de6c1dc0f04abeaffaac0a9a6cf,
    type: 2}
  m_PrefabInternal: {fileID: 1980884457}
  m_GameObject: {fileID: 1438065937}
  m_Material: {fileID: 0}
  m_IsTrigger: 0
  m_Enabled: 1
  serializedVersion: 2
  m_Radius: 0.5
  m_Center: {x: 0, y: 0, z: 0}
--- !u!33 &1438065941
MeshFilter:
  m_ObjectHideFlags: 0
  m_PrefabParentObject: {fileID: 33736040794150394, guid: 88c20de6c1dc0f04abeaffaac0a9a6cf,
    type: 2}
  m_PrefabInternal: {fileID: 1980884457}
  m_GameObject: {fileID: 1438065937}
  m_Mesh: {fileID: 10207, guid: 0000000000000000e000000000000000, type: 0}
--- !u!1 &1708690437
GameObject:
  m_ObjectHideFlags: 0
  m_PrefabParentObject: {fileID: 1228426782513836, guid: 88c20de6c1dc0f04abeaffaac0a9a6cf,
    type: 2}
  m_PrefabInternal: {fileID: 1980884457}
  serializedVersion: 5
  m_Component:
  - component: {fileID: 1708690438}
  - component: {fileID: 1708690441}
  - component: {fileID: 1708690440}
  - component: {fileID: 1708690439}
  m_Layer: 8
  m_Name: Cube
  m_TagString: Untagged
  m_Icon: {fileID: 0}
  m_NavMeshLayer: 0
  m_StaticEditorFlags: 4294967295
  m_IsActive: 1
--- !u!4 &1708690438
Transform:
  m_ObjectHideFlags: 0
  m_PrefabParentObject: {fileID: 4137155754746954, guid: 88c20de6c1dc0f04abeaffaac0a9a6cf,
    type: 2}
  m_PrefabInternal: {fileID: 1980884457}
  m_GameObject: {fileID: 1708690437}
  m_LocalRotation: {x: -0, y: -0, z: -0, w: 1}
  m_LocalPosition: {x: 0, y: -0.70000005, z: 0}
  m_LocalScale: {x: 1, y: 1, z: 1}
  m_Children: []
  m_Father: {fileID: 654240353}
  m_RootOrder: 1
  m_LocalEulerAnglesHint: {x: 0, y: 0, z: 0}
--- !u!23 &1708690439
MeshRenderer:
  m_ObjectHideFlags: 0
  m_PrefabParentObject: {fileID: 23589372559137094, guid: 88c20de6c1dc0f04abeaffaac0a9a6cf,
    type: 2}
  m_PrefabInternal: {fileID: 1980884457}
  m_GameObject: {fileID: 1708690437}
  m_Enabled: 1
  m_CastShadows: 1
  m_ReceiveShadows: 1
  m_DynamicOccludee: 1
  m_MotionVectors: 1
  m_LightProbeUsage: 1
  m_ReflectionProbeUsage: 2
  m_Materials:
  - {fileID: 2100000, guid: 1b27a20a436b4c64b882a6f739bf91de, type: 2}
  m_StaticBatchInfo:
    firstSubMesh: 0
    subMeshCount: 0
  m_StaticBatchRoot: {fileID: 0}
  m_ProbeAnchor: {fileID: 0}
  m_LightProbeVolumeOverride: {fileID: 0}
  m_ScaleInLightmap: 1
  m_PreserveUVs: 1
  m_IgnoreNormalsForChartDetection: 0
  m_ImportantGI: 0
  m_StitchLightmapSeams: 0
  m_SelectedEditorRenderState: 3
  m_MinimumChartSize: 4
  m_AutoUVMaxDistance: 0.5
  m_AutoUVMaxAngle: 89
  m_LightmapParameters: {fileID: 0}
  m_SortingLayerID: 0
  m_SortingLayer: 0
  m_SortingOrder: 0
--- !u!65 &1708690440
BoxCollider:
  m_ObjectHideFlags: 0
  m_PrefabParentObject: {fileID: 65163136216855282, guid: 88c20de6c1dc0f04abeaffaac0a9a6cf,
    type: 2}
  m_PrefabInternal: {fileID: 1980884457}
  m_GameObject: {fileID: 1708690437}
  m_Material: {fileID: 0}
  m_IsTrigger: 0
  m_Enabled: 1
  serializedVersion: 2
  m_Size: {x: 1, y: 1, z: 1}
  m_Center: {x: 0, y: 0, z: 0}
--- !u!33 &1708690441
MeshFilter:
  m_ObjectHideFlags: 0
  m_PrefabParentObject: {fileID: 33456869383265282, guid: 88c20de6c1dc0f04abeaffaac0a9a6cf,
    type: 2}
  m_PrefabInternal: {fileID: 1980884457}
  m_GameObject: {fileID: 1708690437}
  m_Mesh: {fileID: 10202, guid: 0000000000000000e000000000000000, type: 0}
--- !u!1 &1730284856
GameObject:
  m_ObjectHideFlags: 0
  m_PrefabParentObject: {fileID: 1858630756550008, guid: 88c20de6c1dc0f04abeaffaac0a9a6cf,
    type: 2}
  m_PrefabInternal: {fileID: 1980884457}
  serializedVersion: 5
  m_Component:
  - component: {fileID: 1730284857}
  - component: {fileID: 1730284858}
  m_Layer: 0
  m_Name: Reflection Probe
  m_TagString: Untagged
  m_Icon: {fileID: 0}
  m_NavMeshLayer: 0
  m_StaticEditorFlags: 0
  m_IsActive: 0
--- !u!4 &1730284857
Transform:
  m_ObjectHideFlags: 0
  m_PrefabParentObject: {fileID: 4269806774681954, guid: 88c20de6c1dc0f04abeaffaac0a9a6cf,
    type: 2}
  m_PrefabInternal: {fileID: 1980884457}
  m_GameObject: {fileID: 1730284856}
  m_LocalRotation: {x: -0, y: -0, z: -0, w: 1}
  m_LocalPosition: {x: -0.01, y: 0.06317496, z: 0.012}
  m_LocalScale: {x: 1, y: 1, z: 1}
  m_Children: []
  m_Father: {fileID: 1302250855}
  m_RootOrder: 0
  m_LocalEulerAnglesHint: {x: 0, y: 0, z: 0}
--- !u!215 &1730284858
ReflectionProbe:
  m_ObjectHideFlags: 0
  m_PrefabParentObject: {fileID: 215772291181534534, guid: 88c20de6c1dc0f04abeaffaac0a9a6cf,
    type: 2}
  m_PrefabInternal: {fileID: 1980884457}
  m_GameObject: {fileID: 1730284856}
  m_Enabled: 0
  serializedVersion: 2
  m_Type: 0
  m_Mode: 1
  m_RefreshMode: 0
  m_TimeSlicingMode: 0
  m_Resolution: 512
  m_UpdateFrequency: 0
  m_BoxSize: {x: 2.1821249, y: 2.8331733, z: 1.9228041}
  m_BoxOffset: {x: -0.06899154, y: 0.07383835, z: -0.20782173}
  m_NearClip: 0.3
  m_FarClip: 1000
  m_ShadowDistance: 100
  m_ClearFlags: 1
  m_BackGroundColor: {r: 0.19215687, g: 0.3019608, b: 0.4745098, a: 0}
  m_CullingMask:
    serializedVersion: 2
    m_Bits: 4294965247
  m_IntensityMultiplier: 1
  m_BlendDistance: 1
  m_HDR: 1
  m_BoxProjection: 0
  m_RenderDynamicObjects: 1
  m_UseOcclusionCulling: 1
  m_Importance: 1
  m_CustomBakedTexture: {fileID: 0}
--- !u!1 &1769480471
GameObject:
  m_ObjectHideFlags: 0
  m_PrefabParentObject: {fileID: 1034026176227000, guid: 88c20de6c1dc0f04abeaffaac0a9a6cf,
    type: 2}
  m_PrefabInternal: {fileID: 1980884457}
  serializedVersion: 5
  m_Component:
  - component: {fileID: 1769480472}
  m_Layer: 0
  m_Name: DemoObjects
  m_TagString: Untagged
  m_Icon: {fileID: 0}
  m_NavMeshLayer: 0
  m_StaticEditorFlags: 0
  m_IsActive: 1
--- !u!4 &1769480472
Transform:
  m_ObjectHideFlags: 0
  m_PrefabParentObject: {fileID: 4934344442018756, guid: 88c20de6c1dc0f04abeaffaac0a9a6cf,
    type: 2}
  m_PrefabInternal: {fileID: 1980884457}
  m_GameObject: {fileID: 1769480471}
  m_LocalRotation: {x: 0, y: 0, z: 0, w: 1}
  m_LocalPosition: {x: 0, y: 0, z: 0}
  m_LocalScale: {x: 1, y: 1, z: 1}
  m_Children:
  - {fileID: 654240353}
  - {fileID: 162246541}
  - {fileID: 1438065938}
  - {fileID: 1302250855}
  - {fileID: 1847182641}
  - {fileID: 741457516}
  m_Father: {fileID: 0}
  m_RootOrder: 1
  m_LocalEulerAnglesHint: {x: 0, y: 0, z: 0}
--- !u!1 &1838066080
GameObject:
  m_ObjectHideFlags: 0
  m_PrefabParentObject: {fileID: 1355006576138142, guid: 88c20de6c1dc0f04abeaffaac0a9a6cf,
    type: 2}
  m_PrefabInternal: {fileID: 1980884457}
  serializedVersion: 5
  m_Component:
  - component: {fileID: 1838066081}
  - component: {fileID: 1838066084}
  - component: {fileID: 1838066083}
  - component: {fileID: 1838066082}
  m_Layer: 10
  m_Name: Cube
  m_TagString: Untagged
  m_Icon: {fileID: 0}
  m_NavMeshLayer: 0
  m_StaticEditorFlags: 4294967295
  m_IsActive: 1
--- !u!4 &1838066081
Transform:
  m_ObjectHideFlags: 0
  m_PrefabParentObject: {fileID: 4617857512883566, guid: 88c20de6c1dc0f04abeaffaac0a9a6cf,
    type: 2}
  m_PrefabInternal: {fileID: 1980884457}
  m_GameObject: {fileID: 1838066080}
  m_LocalRotation: {x: -0, y: -0, z: -0, w: 1}
  m_LocalPosition: {x: 0, y: -0.70000005, z: 0}
  m_LocalScale: {x: 1, y: 1, z: 1}
  m_Children: []
  m_Father: {fileID: 1438065938}
  m_RootOrder: 1
  m_LocalEulerAnglesHint: {x: 0, y: 0, z: 0}
--- !u!23 &1838066082
MeshRenderer:
  m_ObjectHideFlags: 0
  m_PrefabParentObject: {fileID: 23684612604043742, guid: 88c20de6c1dc0f04abeaffaac0a9a6cf,
    type: 2}
  m_PrefabInternal: {fileID: 1980884457}
  m_GameObject: {fileID: 1838066080}
  m_Enabled: 1
  m_CastShadows: 1
  m_ReceiveShadows: 1
  m_DynamicOccludee: 1
  m_MotionVectors: 1
  m_LightProbeUsage: 1
  m_ReflectionProbeUsage: 2
  m_Materials:
  - {fileID: 2100000, guid: 964f6a34e2240bf45940918b112ce7be, type: 2}
  m_StaticBatchInfo:
    firstSubMesh: 0
    subMeshCount: 0
  m_StaticBatchRoot: {fileID: 0}
  m_ProbeAnchor: {fileID: 0}
  m_LightProbeVolumeOverride: {fileID: 0}
  m_ScaleInLightmap: 1
  m_PreserveUVs: 1
  m_IgnoreNormalsForChartDetection: 0
  m_ImportantGI: 0
  m_StitchLightmapSeams: 0
  m_SelectedEditorRenderState: 3
  m_MinimumChartSize: 4
  m_AutoUVMaxDistance: 0.5
  m_AutoUVMaxAngle: 89
  m_LightmapParameters: {fileID: 0}
  m_SortingLayerID: 0
  m_SortingLayer: 0
  m_SortingOrder: 0
--- !u!65 &1838066083
BoxCollider:
  m_ObjectHideFlags: 0
  m_PrefabParentObject: {fileID: 65838407286517214, guid: 88c20de6c1dc0f04abeaffaac0a9a6cf,
    type: 2}
  m_PrefabInternal: {fileID: 1980884457}
  m_GameObject: {fileID: 1838066080}
  m_Material: {fileID: 0}
  m_IsTrigger: 0
  m_Enabled: 1
  serializedVersion: 2
  m_Size: {x: 1, y: 1, z: 1}
  m_Center: {x: 0, y: 0, z: 0}
--- !u!33 &1838066084
MeshFilter:
  m_ObjectHideFlags: 0
  m_PrefabParentObject: {fileID: 33725590161859174, guid: 88c20de6c1dc0f04abeaffaac0a9a6cf,
    type: 2}
  m_PrefabInternal: {fileID: 1980884457}
  m_GameObject: {fileID: 1838066080}
  m_Mesh: {fileID: 10202, guid: 0000000000000000e000000000000000, type: 0}
--- !u!1 &1847182640
GameObject:
  m_ObjectHideFlags: 0
  m_PrefabParentObject: {fileID: 1620181905657374, guid: 88c20de6c1dc0f04abeaffaac0a9a6cf,
    type: 2}
  m_PrefabInternal: {fileID: 1980884457}
  serializedVersion: 5
  m_Component:
  - component: {fileID: 1847182641}
  - component: {fileID: 1847182644}
  - component: {fileID: 1847182643}
  - component: {fileID: 1847182642}
  m_Layer: 12
  m_Name: Sphere 2/10
  m_TagString: Untagged
  m_Icon: {fileID: 0}
  m_NavMeshLayer: 0
  m_StaticEditorFlags: 4294967295
  m_IsActive: 1
--- !u!4 &1847182641
Transform:
  m_ObjectHideFlags: 0
  m_PrefabParentObject: {fileID: 4334560254728742, guid: 88c20de6c1dc0f04abeaffaac0a9a6cf,
    type: 2}
  m_PrefabInternal: {fileID: 1980884457}
  m_GameObject: {fileID: 1847182640}
  m_LocalRotation: {x: -0, y: -0, z: -0, w: 1}
  m_LocalPosition: {x: 0, y: 1.2, z: -3}
  m_LocalScale: {x: 1, y: 1, z: 1}
  m_Children:
  - {fileID: 109417065}
  m_Father: {fileID: 1769480472}
  m_RootOrder: 4
  m_LocalEulerAnglesHint: {x: 0, y: 0, z: 0}
--- !u!23 &1847182642
MeshRenderer:
  m_ObjectHideFlags: 0
  m_PrefabParentObject: {fileID: 23670919240028110, guid: 88c20de6c1dc0f04abeaffaac0a9a6cf,
    type: 2}
  m_PrefabInternal: {fileID: 1980884457}
  m_GameObject: {fileID: 1847182640}
  m_Enabled: 1
  m_CastShadows: 1
  m_ReceiveShadows: 1
  m_DynamicOccludee: 1
  m_MotionVectors: 1
  m_LightProbeUsage: 1
  m_ReflectionProbeUsage: 2
  m_Materials:
  - {fileID: 2100000, guid: db3bceb128d32144ca6fd4550ac256bc, type: 2}
  m_StaticBatchInfo:
    firstSubMesh: 0
    subMeshCount: 0
  m_StaticBatchRoot: {fileID: 0}
  m_ProbeAnchor: {fileID: 0}
  m_LightProbeVolumeOverride: {fileID: 0}
  m_ScaleInLightmap: 1
  m_PreserveUVs: 1
  m_IgnoreNormalsForChartDetection: 0
  m_ImportantGI: 0
  m_StitchLightmapSeams: 0
  m_SelectedEditorRenderState: 3
  m_MinimumChartSize: 4
  m_AutoUVMaxDistance: 0.5
  m_AutoUVMaxAngle: 89
  m_LightmapParameters: {fileID: 0}
  m_SortingLayerID: 0
  m_SortingLayer: 0
  m_SortingOrder: 0
--- !u!135 &1847182643
SphereCollider:
  m_ObjectHideFlags: 0
  m_PrefabParentObject: {fileID: 135437102159556278, guid: 88c20de6c1dc0f04abeaffaac0a9a6cf,
    type: 2}
  m_PrefabInternal: {fileID: 1980884457}
  m_GameObject: {fileID: 1847182640}
  m_Material: {fileID: 0}
  m_IsTrigger: 0
  m_Enabled: 1
  serializedVersion: 2
  m_Radius: 0.5
  m_Center: {x: 0, y: 0, z: 0}
--- !u!33 &1847182644
MeshFilter:
  m_ObjectHideFlags: 0
  m_PrefabParentObject: {fileID: 33143664628153274, guid: 88c20de6c1dc0f04abeaffaac0a9a6cf,
    type: 2}
  m_PrefabInternal: {fileID: 1980884457}
  m_GameObject: {fileID: 1847182640}
  m_Mesh: {fileID: 10207, guid: 0000000000000000e000000000000000, type: 0}
--- !u!1 &1849257780
GameObject:
  m_ObjectHideFlags: 0
  m_PrefabParentObject: {fileID: 1653700269310046, guid: 88c20de6c1dc0f04abeaffaac0a9a6cf,
    type: 2}
  m_PrefabInternal: {fileID: 1980884457}
  serializedVersion: 5
  m_Component:
  - component: {fileID: 1849257781}
  - component: {fileID: 1849257782}
  m_Layer: 0
  m_Name: Reflection Probe (1)
  m_TagString: Untagged
  m_Icon: {fileID: 0}
  m_NavMeshLayer: 0
  m_StaticEditorFlags: 0
  m_IsActive: 1
--- !u!4 &1849257781
Transform:
  m_ObjectHideFlags: 0
  m_PrefabParentObject: {fileID: 4337315262327390, guid: 88c20de6c1dc0f04abeaffaac0a9a6cf,
    type: 2}
  m_PrefabInternal: {fileID: 1980884457}
  m_GameObject: {fileID: 1849257780}
  m_LocalRotation: {x: -0, y: -0, z: -0, w: 1}
  m_LocalPosition: {x: 0, y: -0.020097733, z: 0}
  m_LocalScale: {x: 1, y: 1, z: 1}
  m_Children: []
  m_Father: {fileID: 162246541}
  m_RootOrder: 1
  m_LocalEulerAnglesHint: {x: 0, y: 0, z: 0}
--- !u!215 &1849257782
ReflectionProbe:
  m_ObjectHideFlags: 0
  m_PrefabParentObject: {fileID: 215428470545105882, guid: 88c20de6c1dc0f04abeaffaac0a9a6cf,
    type: 2}
  m_PrefabInternal: {fileID: 1980884457}
  m_GameObject: {fileID: 1849257780}
  m_Enabled: 1
  serializedVersion: 2
  m_Type: 0
  m_Mode: 1
  m_RefreshMode: 0
  m_TimeSlicingMode: 0
  m_Resolution: 512
  m_UpdateFrequency: 0
  m_BoxSize: {x: 2.7702398, y: 2.8331733, z: 2.3436346}
  m_BoxOffset: {x: -0.16893959, y: 0.16882706, z: -0.15531254}
  m_NearClip: 0.3
  m_FarClip: 1000
  m_ShadowDistance: 100
  m_ClearFlags: 1
  m_BackGroundColor: {r: 0.19215687, g: 0.3019608, b: 0.4745098, a: 0}
  m_CullingMask:
    serializedVersion: 2
    m_Bits: 4294966783
  m_IntensityMultiplier: 1
  m_BlendDistance: 1
  m_HDR: 1
  m_BoxProjection: 0
  m_RenderDynamicObjects: 1
  m_UseOcclusionCulling: 1
  m_Importance: 1
  m_CustomBakedTexture: {fileID: 0}
--- !u!1001 &1980884457
Prefab:
  m_ObjectHideFlags: 0
  serializedVersion: 2
  m_Modification:
    m_TransformParent: {fileID: 0}
    m_Modifications:
    - target: {fileID: 4934344442018756, guid: 88c20de6c1dc0f04abeaffaac0a9a6cf, type: 2}
      propertyPath: m_LocalPosition.x
      value: 0
      objectReference: {fileID: 0}
    - target: {fileID: 4934344442018756, guid: 88c20de6c1dc0f04abeaffaac0a9a6cf, type: 2}
      propertyPath: m_LocalPosition.y
      value: 0
      objectReference: {fileID: 0}
    - target: {fileID: 4934344442018756, guid: 88c20de6c1dc0f04abeaffaac0a9a6cf, type: 2}
      propertyPath: m_LocalPosition.z
      value: 0
      objectReference: {fileID: 0}
    - target: {fileID: 4934344442018756, guid: 88c20de6c1dc0f04abeaffaac0a9a6cf, type: 2}
      propertyPath: m_LocalRotation.x
      value: 0
      objectReference: {fileID: 0}
    - target: {fileID: 4934344442018756, guid: 88c20de6c1dc0f04abeaffaac0a9a6cf, type: 2}
      propertyPath: m_LocalRotation.y
      value: 0
      objectReference: {fileID: 0}
    - target: {fileID: 4934344442018756, guid: 88c20de6c1dc0f04abeaffaac0a9a6cf, type: 2}
      propertyPath: m_LocalRotation.z
      value: 0
      objectReference: {fileID: 0}
    - target: {fileID: 4934344442018756, guid: 88c20de6c1dc0f04abeaffaac0a9a6cf, type: 2}
      propertyPath: m_LocalRotation.w
      value: 1
      objectReference: {fileID: 0}
    - target: {fileID: 4934344442018756, guid: 88c20de6c1dc0f04abeaffaac0a9a6cf, type: 2}
      propertyPath: m_RootOrder
      value: 1
      objectReference: {fileID: 0}
    m_RemovedComponents: []
  m_ParentPrefab: {fileID: 100100000, guid: 88c20de6c1dc0f04abeaffaac0a9a6cf, type: 2}
  m_RootGameObject: {fileID: 1769480471}
  m_IsPrefabParent: 0
--- !u!1 &1986136314
GameObject:
  m_ObjectHideFlags: 0
  m_PrefabParentObject: {fileID: 1646325129500086, guid: 88c20de6c1dc0f04abeaffaac0a9a6cf,
    type: 2}
  m_PrefabInternal: {fileID: 1980884457}
  serializedVersion: 5
  m_Component:
  - component: {fileID: 1986136315}
  - component: {fileID: 1986136318}
  - component: {fileID: 1986136317}
  - component: {fileID: 1986136316}
  m_Layer: 9
  m_Name: Cube
  m_TagString: Untagged
  m_Icon: {fileID: 0}
  m_NavMeshLayer: 0
  m_StaticEditorFlags: 4294967295
  m_IsActive: 1
--- !u!4 &1986136315
Transform:
  m_ObjectHideFlags: 0
  m_PrefabParentObject: {fileID: 4585164413535350, guid: 88c20de6c1dc0f04abeaffaac0a9a6cf,
    type: 2}
  m_PrefabInternal: {fileID: 1980884457}
  m_GameObject: {fileID: 1986136314}
  m_LocalRotation: {x: -0, y: -0, z: -0, w: 1}
  m_LocalPosition: {x: 0, y: -0.70000005, z: 0}
  m_LocalScale: {x: 1, y: 1, z: 1}
  m_Children: []
  m_Father: {fileID: 162246541}
  m_RootOrder: 0
  m_LocalEulerAnglesHint: {x: 0, y: 0, z: 0}
--- !u!23 &1986136316
MeshRenderer:
  m_ObjectHideFlags: 0
  m_PrefabParentObject: {fileID: 23372505803334854, guid: 88c20de6c1dc0f04abeaffaac0a9a6cf,
    type: 2}
  m_PrefabInternal: {fileID: 1980884457}
  m_GameObject: {fileID: 1986136314}
  m_Enabled: 1
  m_CastShadows: 1
  m_ReceiveShadows: 1
  m_DynamicOccludee: 1
  m_MotionVectors: 1
  m_LightProbeUsage: 1
  m_ReflectionProbeUsage: 2
  m_Materials:
  - {fileID: 2100000, guid: abcc3c67b7d0a794f8bb91be4e85abdd, type: 2}
  m_StaticBatchInfo:
    firstSubMesh: 0
    subMeshCount: 0
  m_StaticBatchRoot: {fileID: 0}
  m_ProbeAnchor: {fileID: 0}
  m_LightProbeVolumeOverride: {fileID: 0}
  m_ScaleInLightmap: 1
  m_PreserveUVs: 1
  m_IgnoreNormalsForChartDetection: 0
  m_ImportantGI: 0
  m_StitchLightmapSeams: 0
  m_SelectedEditorRenderState: 3
  m_MinimumChartSize: 4
  m_AutoUVMaxDistance: 0.5
  m_AutoUVMaxAngle: 89
  m_LightmapParameters: {fileID: 0}
  m_SortingLayerID: 0
  m_SortingLayer: 0
  m_SortingOrder: 0
--- !u!65 &1986136317
BoxCollider:
  m_ObjectHideFlags: 0
  m_PrefabParentObject: {fileID: 65485205355047570, guid: 88c20de6c1dc0f04abeaffaac0a9a6cf,
    type: 2}
  m_PrefabInternal: {fileID: 1980884457}
  m_GameObject: {fileID: 1986136314}
  m_Material: {fileID: 0}
  m_IsTrigger: 0
  m_Enabled: 1
  serializedVersion: 2
  m_Size: {x: 1, y: 1, z: 1}
  m_Center: {x: 0, y: 0, z: 0}
--- !u!33 &1986136318
MeshFilter:
  m_ObjectHideFlags: 0
  m_PrefabParentObject: {fileID: 33235840402209806, guid: 88c20de6c1dc0f04abeaffaac0a9a6cf,
    type: 2}
  m_PrefabInternal: {fileID: 1980884457}
  m_GameObject: {fileID: 1986136314}
  m_Mesh: {fileID: 10202, guid: 0000000000000000e000000000000000, type: 0}
